<svg version="1.1" xmlns="http://www.w3.org/2000/svg" xmlns:xlink="http://www.w3.org/1999/xlink" x="0px" y="0px" viewBox="0 0 50 50" enable-background="new 0 0 50 50" xml:space="preserve">
					<line class="line1" fill="none" x1="13" y1="13" x2="33" y2="33" stroke-linecap="square"/>
					<line class="line2" fill="none" x1="13" y1="33" x2="33" y2="13" stroke-linecap="square"/>
				</svg>